<svg xmlns="http://www.w3.org/2000/svg" width="24.188" height="18.031" viewBox="0 0 24.188 18.031">
  <metadata><?xpacket begin="﻿" id="W5M0MpCehiHzreSzNTczkc9d"?>
<x:xmpmeta xmlns:x="adobe:ns:meta/" x:xmptk="Adobe XMP Core 5.6-c138 79.159824, 2016/09/14-01:09:01        ">
   <rdf:RDF xmlns:rdf="http://www.w3.org/1999/02/22-rdf-syntax-ns#">
      <rdf:Description rdf:about=""/>
   </rdf:RDF>
</x:xmpmeta>
                                                                                                    
                                                                                                    
                                                                                                    
                                                                                                    
                                                                                                    
                                                                                                    
                                                                                                    
                                                                                                    
                                                                                                    
                                                                                                    
                                                                                                    
                                                                                                    
                                                                                                    
                                                                                                    
                                                                                                    
                                                                                                    
                                                                                                    
                                                                                                    
                                                                                                    
                                                                                                    
                           
<?xpacket end="w"?></metadata>
<defs>
    <style>
      .cls-1 {
        fill: #fff;
        fill-rule: evenodd;
      }
    </style>
  </defs>
  <path id="setup" class="cls-1" d="M102,576v-8h-2v8a4.233,4.233,0,0,0-3.2,3.779c0,1.779,1.538,2.778,3.2,3.221v3h2v-3a3.083,3.083,0,0,0,2.605-3.221A3.7,3.7,0,0,0,102,576Zm-1.3,5.641a1.862,1.862,0,1,1,1.885-1.862A1.875,1.875,0,0,1,100.7,581.641Zm12.148-7.009A3.734,3.734,0,0,0,110,571v-3h-2v3a3.827,3.827,0,0,0-2.953,3.632,3.576,3.576,0,0,0,2.964,3.393v7.993L110,586v-8A3.442,3.442,0,0,0,112.85,574.632Zm-3.9,1.863a1.863,1.863,0,1,1,1.885-1.863A1.876,1.876,0,0,1,108.948,576.5ZM121,579c0-1.779-1.339-2.558-3-3v-8h-2v8a3.3,3.3,0,0,0-2.708,3.351A3.63,3.63,0,0,0,116,583v3h2v-3A4.312,4.312,0,0,0,121,579Zm-3.806,2.213a1.862,1.862,0,1,1,1.885-1.862A1.876,1.876,0,0,1,117.193,581.213ZM102,568h0Z" transform="translate(-96.813 -568)"/>
</svg>
