<svg xmlns="http://www.w3.org/2000/svg" width="26" height="22" viewBox="0 0 26 22">
  <metadata><?xpacket begin="﻿" id="W5M0MpCehiHzreSzNTczkc9d"?>
<x:xmpmeta xmlns:x="adobe:ns:meta/" x:xmptk="Adobe XMP Core 5.6-c138 79.159824, 2016/09/14-01:09:01        ">
   <rdf:RDF xmlns:rdf="http://www.w3.org/1999/02/22-rdf-syntax-ns#">
      <rdf:Description rdf:about=""/>
   </rdf:RDF>
</x:xmpmeta>
                                                                                                    
                                                                                                    
                                                                                                    
                                                                                                    
                                                                                                    
                                                                                                    
                                                                                                    
                                                                                                    
                                                                                                    
                                                                                                    
                                                                                                    
                                                                                                    
                                                                                                    
                                                                                                    
                                                                                                    
                                                                                                    
                                                                                                    
                                                                                                    
                                                                                                    
                                                                                                    
                           
<?xpacket end="w"?></metadata>
<defs>
    <style>
      .cls-1 {
        fill: #0072c6;
        fill-rule: evenodd;
      }
    </style>
  </defs>
  <path id="schedules" class="cls-1" d="M111,529v-1h-2v-1h1v-1h-1v-1h2v-1h-3v5h3Zm7.5-14a5.5,5.5,0,0,0-5.288,4H98v15h8v2h-3v1h12v-1h-3v-2h8v-8.213A5.5,5.5,0,0,0,118.5,515ZM110,536h-2v-2h2v2Zm8-4H100V521h13.025A5.5,5.5,0,0,0,118,525.974V532Zm3-9h-4v-5h2v3h2v2Zm-10,4h1v2h3v-1h-2v-3h2v-1h-3v2h-1v1Zm-6,0h1v2h1v-5h-3v5h1v-2Zm0-2h1v1h-1v-1Z" transform="translate(-98 -515)"/>
</svg>
