{
 "general":{
      "package":"tvmosaic",
      "name":"TVMosaic (Community Edition)",
      "version":"8.0.0.WCRANGE",
      "depends":[],
      "conflicts":[],
      "developer":"DVBLogic",
      "maintainer":"DVBLogic",
      "email":"opensource@dvblogic.com",
      "website":"https://gitlab.com/tvmosaic/",
      "architecture":"x86-64",
      "firmware":"2.0"
   },
   "adm-desktop":{
      "app":{
         "type":"custom",
         "protocol":"http",
         "port":9270,
         "url":"/web"
      },
      "privilege":{
         "accessible":"",
         "customizable":true
      }
   },
   "register":{
      "symbolic-link":{
      },
      "share-folder":[
         {
            "name":"TVMosaic",
            "description":"TVMosaic share"
         }
      ],
      "port":[
         9270,
         9271
      ],
      "boot-priority":{
         "start-order":20,
         "stop-order":80
      },
      "prerequisites":{
         "enable-service":[],
         "restart-service":[]
      }
   }
}
